[gd_scene load_steps=3 format=2]

[ext_resource path="res://BaseFont.tres" type="DynamicFont" id=1]
[ext_resource path="res://ServerDisplay.gd" type="Script" id=2]

[node name="ServerDisplay" type="Label"]
anchor_right = 1.0
margin_right = -220.0
margin_bottom = 130.0
rect_min_size = Vector2( 0, 130 )
custom_fonts/font = ExtResource( 1 )
text = "N/A: 0.0.0.0"
align = 1
valign = 1
script = ExtResource( 2 )
__meta__ = {
"_edit_use_anchors_": false
}

[node name="Join_Button" type="Button" parent="."]
anchor_left = 1.0
anchor_right = 1.0
anchor_bottom = 1.0
margin_left = -302.0
margin_top = 13.0
margin_bottom = -13.0
custom_fonts/font = ExtResource( 1 )
text = "Join"
